[gd_scene load_steps=2 format=3 uid="uid://bwqwuu4gcu5b3"]

[ext_resource type="Script" path="res://scenes/menu/defeat.gd" id="1_sg4qk"]

[node name="Defeat" type="CanvasLayer"]
script = ExtResource("1_sg4qk")

[node name="Background" type="ColorRect" parent="."]
offset_right = 719.0
offset_bottom = 481.0
color = Color(0.184314, 0.184314, 0.184314, 1)

[node name="Label" type="Label" parent="."]
offset_left = 332.0
offset_top = 209.0
offset_right = 400.0
offset_bottom = 232.0
text = "You died"

[node name="PlayAgain" type="Button" parent="."]
offset_left = 330.0
offset_top = 242.0
offset_right = 417.0
offset_bottom = 273.0
text = "Play again"

[connection signal="pressed" from="PlayAgain" to="." method="_on_play_again_pressed"]
